{
  "api_version": "1.0",
  "pagination": {
    "per_page": 20,
    "pages": 5,
    "page": 1,
    "count": 81
  },
  "results": [
    {
      "is_election": true,
      "first_file_date": "2019-02-22",
      "load_date": "2021-04-17T01:07:28+00:00",
      "district_number": 4,
      "disbursements": 65299.53,
      "coverage_end_date": "2021-12-31T00:00:00",
      "incumbent_challenge": "C",
      "incumbent_challenge_full": "Challenger",
      "cycle": 2022,
      "address_state": "CO",
      "has_raised_funds": true,
      "candidate_election_year": 2022,
      "address_zip": "80134",
      "cash_on_hand_end_period": 163997.94,
      "federal_funds_flag": false,
      "party_full": "DEMOCRATIC PARTY",
      "address_city": "PARKER",
      "receipts": 76824.52,
      "election_districts": [
        "04",
        "04"
      ],
      "cycles": [
        2020,
        2022
      ],
      "district": "04",
      "office": "H",
      "debts_owed_by_committee": 5270.8,
      "candidate_inactive": false,
      "last_f2_date": "2021-02-02",
      "election_year": 2022,
      "election_years": [
        2020,
        2022
      ],
      "state": "CO",
      "name": "MCCORKLE, ISAAC IAN",
      "party": "DEM",
      "office_full": "House",
      "candidate_status": "C",
      "active_through": 2022,
      "last_file_date": "2021-02-02",
      "address_street_1": "10158 STONERIDGE TERRACE",
      "coverage_start_date": "2021-01-01T00:00:00",
      "two_year_period": 2022,
      "address_street_2": null,
      "candidate_id": "H0CO04197"
    },
    {
      "is_election": true,
      "first_file_date": "2021-02-17",
      "load_date": "2021-04-17T01:07:28+00:00",
      "district_number": 3,
      "disbursements": 478510.26,
      "coverage_end_date": "2021-12-31T00:00:00",
      "incumbent_challenge": "C",
      "incumbent_challenge_full": "Challenger",
      "cycle": 2022,
      "address_state": "CO",
      "has_raised_funds": true,
      "candidate_election_year": 2022,
      "address_zip": "81008",
      "cash_on_hand_end_period": 56610.39,
      "federal_funds_flag": false,
      "party_full": "DEMOCRATIC PARTY",
      "address_city": "PUEBLO",
      "receipts": 535120.65,
      "election_districts": [
        "03"
      ],
      "cycles": [
        2022
      ],
      "district": "03",
      "office": "H",
      "debts_owed_by_committee": 0,
      "candidate_inactive": false,
      "last_f2_date": "2021-02-17",
      "election_year": 2022,
      "election_years": [
        2022
      ],
      "state": "CO",
      "name": "SANDOVAL TAFOYA, SOLEDAD",
      "party": "DEM",
      "office_full": "House",
      "candidate_status": "C",
      "active_through": 2022,
      "last_file_date": "2021-02-17",
      "address_street_1": "140 WEST 29TH STREET",
      "coverage_start_date": "2021-01-01T00:00:00",
      "two_year_period": 2022,
      "address_street_2": "#211",
      "candidate_id": "H2CO03245"
    },
    {
      "is_election": true,
      "first_file_date": "2009-01-15",
      "load_date": "2021-12-08T06:50:51+00:00",
      "district_number": 0,
      "disbursements": 5663450.75,
      "coverage_end_date": "2021-12-31T00:00:00",
      "incumbent_challenge": "I",
      "incumbent_challenge_full": "Incumbent",
      "cycle": 2022,
      "address_state": "CO",
      "has_raised_funds": true,
      "candidate_election_year": 2022,
      "address_zip": "80206",
      "cash_on_hand_end_period": 4737776.66,
      "federal_funds_flag": false,
      "party_full": "DEMOCRATIC PARTY",
      "address_city": "DENVER",
      "receipts": 8686103.83,
      "election_districts": [
        "00",
        "00",
        "00"
      ],
      "cycles": [
        2010,
        2012,
        2014,
        2016,
        2018,
        2020,
        2022
      ],
      "district": "00",
      "office": "S",
      "debts_owed_by_committee": 374819,
      "candidate_inactive": false,
      "last_f2_date": "2020-02-21",
      "election_year": 2022,
      "election_years": [
        2010,
        2016,
        2022
      ],
      "state": "CO",
      "name": "BENNET, MICHAEL F.",
      "party": "DEM",
      "office_full": "Senate",
      "candidate_status": "P",
      "active_through": 2022,
      "last_file_date": "2020-02-21",
      "address_street_1": "2830 EAST 7TH AVENUE",
      "coverage_start_date": "2017-01-01T00:00:00",
      "two_year_period": 2022,
      "address_street_2": null,
      "candidate_id": "S0CO00211"
    },
    {
      "is_election": true,
      "first_file_date": "2021-09-25",
      "load_date": "2021-12-08T06:50:51+00:00",
      "district_number": 0,
      "disbursements": 0,
      "coverage_end_date": null,
      "incumbent_challenge": "C",
      "incumbent_challenge_full": "Challenger",
      "cycle": 2022,
      "address_state": "CO",
      "has_raised_funds": false,
      "candidate_election_year": 2022,
      "address_zip": "80925",
      "cash_on_hand_end_period": 0,
      "federal_funds_flag": false,
      "party_full": "NO PARTY AFFILIATION",
      "address_city": "COLORADO SPRINGS",
      "receipts": 0,
      "election_districts": [
        "00"
      ],
      "cycles": [
        2022
      ],
      "district": "00",
      "office": "S",
      "debts_owed_by_committee": 0,
      "candidate_inactive": false,
      "last_f2_date": "2021-09-25",
      "election_year": 2022,
      "election_years": [
        2022
      ],
      "state": "CO",
      "name": "TREVI?O, AARON DAVID",
      "party": "NPA",
      "office_full": "Senate",
      "candidate_status": "N",
      "active_through": 2022,
      "last_file_date": "2022-02-14",
      "address_street_1": "7247 DUTCH LOOP",
      "coverage_start_date": null,
      "two_year_period": 2022,
      "address_street_2": null,
      "candidate_id": "S2CO00217"
    },
    {
      "is_election": true,
      "first_file_date": "2021-02-10",
      "load_date": "2022-01-13T01:40:22+00:00",
      "district_number": 7,
      "disbursements": 0,
      "coverage_end_date": null,
      "incumbent_challenge": "O",
      "incumbent_challenge_full": "Open seat",
      "cycle": 2022,
      "address_state": "CO",
      "has_raised_funds": false,
      "candidate_election_year": 2022,
      "address_zip": "80229",
      "cash_on_hand_end_period": 0,
      "federal_funds_flag": false,
      "party_full": "DEMOCRATIC PARTY",
      "address_city": "DENVER",
      "receipts": 0,
      "election_districts": [
        "07"
      ],
      "cycles": [
        2022
      ],
      "district": "07",
      "office": "H",
      "debts_owed_by_committee": 0,
      "candidate_inactive": false,
      "last_f2_date": "2021-02-10",
      "election_year": 2022,
      "election_years": [
        2022
      ],
      "state": "CO",
      "name": "FAUST, KYLE ALEXANDER",
      "party": "DEM",
      "office_full": "House",
      "candidate_status": "N",
      "active_through": 2022,
      "last_file_date": "2021-02-10",
      "address_street_1": "7965 YORK STREET",
      "coverage_start_date": null,
      "two_year_period": 2022,
      "address_street_2": "APT 2",
      "candidate_id": "H2CO07154"
    },
    {
      "is_election": true,
      "first_file_date": "2022-02-09",
      "load_date": "2022-02-14T21:05:45+00:00",
      "district_number": 7,
      "disbursements": 0,
      "coverage_end_date": null,
      "incumbent_challenge": "O",
      "incumbent_challenge_full": "Open seat",
      "cycle": 2022,
      "address_state": "CO",
      "has_raised_funds": false,
      "candidate_election_year": 2022,
      "address_zip": "80401",
      "cash_on_hand_end_period": 0,
      "federal_funds_flag": false,
      "party_full": "REPUBLICAN PARTY",
      "address_city": "LAKEWOOD",
      "receipts": 0,
      "election_districts": [
        "07"
      ],
      "cycles": [
        2022
      ],
      "district": "07",
      "office": "H",
      "debts_owed_by_committee": 0,
      "candidate_inactive": false,
      "last_f2_date": "2022-02-09",
      "election_year": 2022,
      "election_years": [
        2022
      ],
      "state": "CO",
      "name": "DEMPSEY, BRAD",
      "party": "REP",
      "office_full": "House",
      "candidate_status": "N",
      "active_through": 2022,
      "last_file_date": "2022-02-09",
      "address_street_1": "14405 W COLFAX AVE. #258",
      "coverage_start_date": null,
      "two_year_period": 2022,
      "address_street_2": null,
      "candidate_id": "H2CO07212"
    },
    {
      "is_election": true,
      "first_file_date": "2019-07-12",
      "load_date": "2021-04-17T01:07:28+00:00",
      "district_number": 3,
      "disbursements": 263151.98,
      "coverage_end_date": "2021-12-31T00:00:00",
      "incumbent_challenge": "C",
      "incumbent_challenge_full": "Challenger",
      "cycle": 2022,
      "address_state": "CO",
      "has_raised_funds": true,
      "candidate_election_year": 2022,
      "address_zip": "81140",
      "cash_on_hand_end_period": 22407.06,
      "federal_funds_flag": false,
      "party_full": "DEMOCRATIC PARTY",
      "address_city": "LA JARA",
      "receipts": 285559.04,
      "election_districts": [
        "03",
        "03"
      ],
      "cycles": [
        2020,
        2022
      ],
      "district": "03",
      "office": "H",
      "debts_owed_by_committee": 0,
      "candidate_inactive": false,
      "last_f2_date": "2021-02-22",
      "election_year": 2022,
      "election_years": [
        2020,
        2022
      ],
      "state": "CO",
      "name": "VALDEZ, DONALD",
      "party": "DEM",
      "office_full": "House",
      "candidate_status": "C",
      "active_through": 2022,
      "last_file_date": "2021-02-22",
      "address_street_1": "PO BOX 110",
      "coverage_start_date": "2021-01-01T00:00:00",
      "two_year_period": 2022,
      "address_street_2": null,
      "candidate_id": "H0CO03132"
    },
    {
      "is_election": true,
      "first_file_date": "2021-04-28",
      "load_date": "2021-06-03T01:34:06+00:00",
      "district_number": 6,
      "disbursements": 0,
      "coverage_end_date": null,
      "incumbent_challenge": "C",
      "incumbent_challenge_full": "Challenger",
      "cycle": 2022,
      "address_state": "CO",
      "has_raised_funds": false,
      "candidate_election_year": 2022,
      "address_zip": "80129",
      "cash_on_hand_end_period": 0,
      "federal_funds_flag": false,
      "party_full": "REPUBLICAN PARTY",
      "address_city": "HIGHLANDS RANCH",
      "receipts": 0,
      "election_districts": [
        "06"
      ],
      "cycles": [
        2022
      ],
      "district": "06",
      "office": "H",
      "debts_owed_by_committee": 0,
      "candidate_inactive": false,
      "last_f2_date": "2021-04-28",
      "election_year": 2022,
      "election_years": [
        2022
      ],
      "state": "CO",
      "name": "RICKERSON, GLENN III",
      "party": "REP",
      "office_full": "House",
      "candidate_status": "N",
      "active_through": 2022,
      "last_file_date": "2021-04-28",
      "address_street_1": "9249 S BROADWAY UNIT",
      "coverage_start_date": null,
      "two_year_period": 2022,
      "address_street_2": "200-159",
      "candidate_id": "H2CO06172"
    },
    {
      "is_election": true,
      "first_file_date": "2021-08-01",
      "load_date": "2021-08-21T01:36:52+00:00",
      "district_number": 5,
      "disbursements": 0,
      "coverage_end_date": "2021-12-31T00:00:00",
      "incumbent_challenge": "C",
      "incumbent_challenge_full": "Challenger",
      "cycle": 2022,
      "address_state": "CO",
      "has_raised_funds": false,
      "candidate_election_year": 2022,
      "address_zip": "80919",
      "cash_on_hand_end_period": 0,
      "federal_funds_flag": false,
      "party_full": "REPUBLICAN PARTY",
      "address_city": "COLORADO SPIRNGS",
      "receipts": 0,
      "election_districts": [
        "05"
      ],
      "cycles": [
        2022
      ],
      "district": "05",
      "office": "H",
      "debts_owed_by_committee": 0,
      "candidate_inactive": false,
      "last_f2_date": "2021-08-01",
      "election_year": 2022,
      "election_years": [
        2022
      ],
      "state": "CO",
      "name": "MITCHELL, CHRISTOPHER",
      "party": "REP",
      "office_full": "House",
      "candidate_status": "N",
      "active_through": 2022,
      "last_file_date": "2021-08-01",
      "address_street_1": "6660 DELMONICO DRIVE",
      "coverage_start_date": "2021-07-01T00:00:00",
      "two_year_period": 2022,
      "address_street_2": "SUITE D228",
      "candidate_id": "H2CO05182"
    },
    {
      "is_election": true,
      "first_file_date": "2021-04-02",
      "load_date": "2021-12-08T06:50:51+00:00",
      "district_number": 0,
      "disbursements": 0,
      "coverage_end_date": null,
      "incumbent_challenge": "C",
      "incumbent_challenge_full": "Challenger",
      "cycle": 2022,
      "address_state": "CO",
      "has_raised_funds": false,
      "candidate_election_year": 2022,
      "address_zip": "80550",
      "cash_on_hand_end_period": 0,
      "federal_funds_flag": false,
      "party_full": "REPUBLICAN PARTY",
      "address_city": "WINDSOR",
      "receipts": 0,
      "election_districts": [
        "00"
      ],
      "cycles": [
        2022
      ],
      "district": "00",
      "office": "S",
      "debts_owed_by_committee": 0,
      "candidate_inactive": false,
      "last_f2_date": "2021-04-02",
      "election_year": 2022,
      "election_years": [
        2022
      ],
      "state": "CO",
      "name": "YU, PETER",
      "party": "REP",
      "office_full": "Senate",
      "candidate_status": "N",
      "active_through": 2022,
      "last_file_date": "2021-04-02",
      "address_street_1": "1994 AUTUMN MOON DRIVE",
      "coverage_start_date": null,
      "two_year_period": 2022,
      "address_street_2": null,
      "candidate_id": "S2CO00167"
    },
    {
      "is_election": true,
      "first_file_date": "2021-12-11",
      "load_date": "2021-12-23T01:40:42+00:00",
      "district_number": 0,
      "disbursements": 0,
      "coverage_end_date": null,
      "incumbent_challenge": "C",
      "incumbent_challenge_full": "Challenger",
      "cycle": 2022,
      "address_state": "CO",
      "has_raised_funds": false,
      "candidate_election_year": 2022,
      "address_zip": "80906",
      "cash_on_hand_end_period": 0,
      "federal_funds_flag": false,
      "party_full": "FREEDOM PARTY",
      "address_city": "COLORADO SPRINGS",
      "receipts": 0,
      "election_districts": [
        "00"
      ],
      "cycles": [
        2022
      ],
      "district": "00",
      "office": "S",
      "debts_owed_by_committee": 0,
      "candidate_inactive": false,
      "last_f2_date": "2021-12-11",
      "election_year": 2022,
      "election_years": [
        2022
      ],
      "state": "CO",
      "name": "ANDERSON, TEAL'C MR",
      "party": "FRE",
      "office_full": "Senate",
      "candidate_status": "N",
      "active_through": 2022,
      "last_file_date": "2022-02-14",
      "address_street_1": "101 NORAD RD",
      "coverage_start_date": null,
      "two_year_period": 2022,
      "address_street_2": null,
      "candidate_id": "S2CO00266"
    },
    {
      "is_election": true,
      "first_file_date": "2021-11-16",
      "load_date": "2022-01-27T21:04:27+00:00",
      "district_number": 8,
      "disbursements": 7876.88,
      "coverage_end_date": "2021-12-31T00:00:00",
      "incumbent_challenge": "C",
      "incumbent_challenge_full": "Challenger",
      "cycle": 2022,
      "address_state": "CO",
      "has_raised_funds": true,
      "candidate_election_year": 2022,
      "address_zip": "80621",
      "cash_on_hand_end_period": 115907.52,
      "federal_funds_flag": false,
      "party_full": "REPUBLICAN PARTY",
      "address_city": "FORT LUPTON",
      "receipts": 123784.4,
      "election_districts": [
        "08"
      ],
      "cycles": [
        2022
      ],
      "district": "08",
      "office": "H",
      "debts_owed_by_committee": 40,
      "candidate_inactive": false,
      "last_f2_date": "2021-11-16",
      "election_year": 2022,
      "election_years": [
        2022
      ],
      "state": "CO",
      "name": "KIRKMEYER, BARBARA",
      "party": "REP",
      "office_full": "House",
      "candidate_status": "C",
      "active_through": 2022,
      "last_file_date": "2021-11-16",
      "address_street_1": "PO BOX 468",
      "coverage_start_date": "2021-10-01T00:00:00",
      "two_year_period": 2022,
      "address_street_2": null,
      "candidate_id": "H2CO08079"
    },
    {
      "is_election": true,
      "first_file_date": "2021-10-14",
      "load_date": "2022-02-04T21:09:24+00:00",
      "district_number": 0,
      "disbursements": 32659.35,
      "coverage_end_date": "2021-12-31T00:00:00",
      "incumbent_challenge": "C",
      "incumbent_challenge_full": "Challenger",
      "cycle": 2022,
      "address_state": "CO",
      "has_raised_funds": true,
      "candidate_election_year": 2022,
      "address_zip": "80134",
      "cash_on_hand_end_period": 271458.84,
      "federal_funds_flag": false,
      "party_full": "REPUBLICAN PARTY",
      "address_city": "PARKER",
      "receipts": 304118.19,
      "election_districts": [
        "00"
      ],
      "cycles": [
        2022
      ],
      "district": "00",
      "office": "S",
      "debts_owed_by_committee": 96187.83,
      "candidate_inactive": false,
      "last_f2_date": "2021-10-14",
      "election_year": 2022,
      "election_years": [
        2022
      ],
      "state": "CO",
      "name": "FLORA, DEBORAH",
      "party": "REP",
      "office_full": "Senate",
      "candidate_status": "C",
      "active_through": 2022,
      "last_file_date": "2021-10-14",
      "address_street_1": "17011 LINCOLN AVE",
      "coverage_start_date": "2021-10-01T00:00:00",
      "two_year_period": 2022,
      "address_street_2": "#401",
      "candidate_id": "S2CO00258"
    },
    {
      "is_election": true,
      "first_file_date": "2021-03-04",
      "load_date": "2022-01-13T01:40:22+00:00",
      "district_number": 7,
      "disbursements": 40958.96,
      "coverage_end_date": "2021-12-31T00:00:00",
      "incumbent_challenge": "O",
      "incumbent_challenge_full": "Open seat",
      "cycle": 2022,
      "address_state": "CO",
      "has_raised_funds": true,
      "candidate_election_year": 2022,
      "address_zip": "80402",
      "cash_on_hand_end_period": 5405.67,
      "federal_funds_flag": false,
      "party_full": "REPUBLICAN PARTY",
      "address_city": "GOLDEN",
      "receipts": 46364.63,
      "election_districts": [
        "07"
      ],
      "cycles": [
        2022
      ],
      "district": "07",
      "office": "H",
      "debts_owed_by_committee": 0,
      "candidate_inactive": false,
      "last_f2_date": "2021-03-23",
      "election_year": 2022,
      "election_years": [
        2022
      ],
      "state": "CO",
      "name": "IMER, LAUREL ANNE",
      "party": "REP",
      "office_full": "House",
      "candidate_status": "C",
      "active_through": 2022,
      "last_file_date": "2021-03-23",
      "address_street_1": "PO BOX",
      "coverage_start_date": "2021-03-01T00:00:00",
      "two_year_period": 2022,
      "address_street_2": "17747",
      "candidate_id": "H2CO07162"
    },
    {
      "is_election": true,
      "first_file_date": "2022-01-03",
      "load_date": "2022-01-13T01:40:22+00:00",
      "district_number": 0,
      "disbursements": 0,
      "coverage_end_date": null,
      "incumbent_challenge": "C",
      "incumbent_challenge_full": "Challenger",
      "cycle": 2022,
      "address_state": "CO",
      "has_raised_funds": false,
      "candidate_election_year": 2022,
      "address_zip": "80439",
      "cash_on_hand_end_period": 0,
      "federal_funds_flag": false,
      "party_full": "REPUBLICAN PARTY",
      "address_city": "EVERGREEN",
      "receipts": 0,
      "election_districts": [
        "00"
      ],
      "cycles": [
        2022
      ],
      "district": "00",
      "office": "S",
      "debts_owed_by_committee": 0,
      "candidate_inactive": false,
      "last_f2_date": "2022-01-03",
      "election_year": 2022,
      "election_years": [
        2022
      ],
      "state": "CO",
      "name": "MOORE, GREGORY JOHN DR.",
      "party": "REP",
      "office_full": "Senate",
      "candidate_status": "N",
      "active_through": 2022,
      "last_file_date": "2022-01-03",
      "address_street_1": "31157 LEWIS RIDGE ROAD",
      "coverage_start_date": null,
      "two_year_period": 2022,
      "address_street_2": null,
      "candidate_id": "S2CO00274"
    },
    {
      "is_election": true,
      "first_file_date": "2022-01-18",
      "load_date": "2022-01-26T21:49:57+00:00",
      "district_number": 7,
      "disbursements": 0,
      "coverage_end_date": null,
      "incumbent_challenge": "O",
      "incumbent_challenge_full": "Open seat",
      "cycle": 2022,
      "address_state": "CO",
      "has_raised_funds": false,
      "candidate_election_year": 2022,
      "address_zip": "80021",
      "cash_on_hand_end_period": 0,
      "federal_funds_flag": false,
      "party_full": "DEMOCRATIC PARTY",
      "address_city": "BROOMFIELD",
      "receipts": 0,
      "election_districts": [
        "07"
      ],
      "cycles": [
        2022
      ],
      "district": "07",
      "office": "H",
      "debts_owed_by_committee": 0,
      "candidate_inactive": false,
      "last_f2_date": "2022-01-18",
      "election_year": 2022,
      "election_years": [
        2022
      ],
      "state": "CO",
      "name": "MOPPER, JUIUS B",
      "party": "DEM",
      "office_full": "House",
      "candidate_status": "N",
      "active_through": 2022,
      "last_file_date": "2022-01-18",
      "address_street_1": "PO BOX 7783",
      "coverage_start_date": null,
      "two_year_period": 2022,
      "address_street_2": null,
      "candidate_id": "H2CO07188"
    },
    {
      "is_election": true,
      "first_file_date": "2021-11-02",
      "load_date": "2022-02-01T21:06:58+00:00",
      "district_number": 8,
      "disbursements": 33631.49,
      "coverage_end_date": "2021-12-31T00:00:00",
      "incumbent_challenge": "C",
      "incumbent_challenge_full": "Challenger",
      "cycle": 2022,
      "address_state": "CO",
      "has_raised_funds": true,
      "candidate_election_year": 2022,
      "address_zip": "80520",
      "cash_on_hand_end_period": 129161.63,
      "federal_funds_flag": false,
      "party_full": "REPUBLICAN PARTY",
      "address_city": "FIRESTONE",
      "receipts": 162793.12,
      "election_districts": [
        "08"
      ],
      "cycles": [
        2022
      ],
      "district": "08",
      "office": "H",
      "debts_owed_by_committee": 30000,
      "candidate_inactive": false,
      "last_f2_date": "2021-11-02",
      "election_year": 2022,
      "election_years": [
        2022
      ],
      "state": "CO",
      "name": "SAINE, LORI A",
      "party": "REP",
      "office_full": "House",
      "candidate_status": "C",
      "active_through": 2022,
      "last_file_date": "2021-11-02",
      "address_street_1": "PO BOX 57",
      "coverage_start_date": "2021-11-01T00:00:00",
      "two_year_period": 2022,
      "address_street_2": null,
      "candidate_id": "H2CO08061"
    },
    {
      "is_election": true,
      "first_file_date": "2021-10-01",
      "load_date": "2022-02-04T21:09:24+00:00",
      "district_number": 0,
      "disbursements": 14773.79,
      "coverage_end_date": "2021-12-31T00:00:00",
      "incumbent_challenge": "C",
      "incumbent_challenge_full": "Challenger",
      "cycle": 2022,
      "address_state": "CO",
      "has_raised_funds": true,
      "candidate_election_year": 2022,
      "address_zip": "81240",
      "cash_on_hand_end_period": 13333.43,
      "federal_funds_flag": false,
      "party_full": "REPUBLICAN PARTY",
      "address_city": "PENROSE",
      "receipts": 28107.22,
      "election_districts": [
        "00"
      ],
      "cycles": [
        2022
      ],
      "district": "00",
      "office": "S",
      "debts_owed_by_committee": 12100,
      "candidate_inactive": false,
      "last_f2_date": "2021-10-01",
      "election_year": 2022,
      "election_years": [
        2022
      ],
      "state": "CO",
      "name": "HANKS, RON",
      "party": "REP",
      "office_full": "Senate",
      "candidate_status": "C",
      "active_through": 2022,
      "last_file_date": "2021-10-01",
      "address_street_1": "PO BOX 117",
      "coverage_start_date": "2021-10-01T00:00:00",
      "two_year_period": 2022,
      "address_street_2": null,
      "candidate_id": "S2CO00233"
    },
    {
      "is_election": true,
      "first_file_date": "2021-02-03",
      "load_date": "2021-04-17T01:07:28+00:00",
      "district_number": 3,
      "disbursements": 1525238.54,
      "coverage_end_date": "2021-12-31T00:00:00",
      "incumbent_challenge": "C",
      "incumbent_challenge_full": "Challenger",
      "cycle": 2022,
      "address_state": "CO",
      "has_raised_funds": true,
      "candidate_election_year": 2022,
      "address_zip": "81655",
      "cash_on_hand_end_period": 430859.58,
      "federal_funds_flag": false,
      "party_full": "DEMOCRATIC PARTY",
      "address_city": "WOLCOTT",
      "receipts": 1956098.12,
      "election_districts": [
        "03"
      ],
      "cycles": [
        2022
      ],
      "district": "03",
      "office": "H",
      "debts_owed_by_committee": 0,
      "candidate_inactive": false,
      "last_f2_date": "2021-02-03",
      "election_year": 2022,
      "election_years": [
        2022
      ],
      "state": "CO",
      "name": "DONOVAN, KERRY",
      "party": "DEM",
      "office_full": "House",
      "candidate_status": "C",
      "active_through": 2022,
      "last_file_date": "2021-02-03",
      "address_street_1": "PO BOX 281",
      "coverage_start_date": "2021-01-01T00:00:00",
      "two_year_period": 2022,
      "address_street_2": null,
      "candidate_id": "H2CO03211"
    },
    {
      "is_election": true,
      "first_file_date": "2021-06-22",
      "load_date": "2021-06-30T02:42:45+00:00",
      "district_number": 5,
      "disbursements": 0,
      "coverage_end_date": null,
      "incumbent_challenge": "C",
      "incumbent_challenge_full": "Challenger",
      "cycle": 2022,
      "address_state": "CO",
      "has_raised_funds": false,
      "candidate_election_year": 2022,
      "address_zip": "80908",
      "cash_on_hand_end_period": 0,
      "federal_funds_flag": false,
      "party_full": "UNAFFILIATED",
      "address_city": "COLORADO SPRINGS",
      "receipts": 0,
      "election_districts": [
        "05"
      ],
      "cycles": [
        2022
      ],
      "district": "05",
      "office": "H",
      "debts_owed_by_committee": 0,
      "candidate_inactive": false,
      "last_f2_date": "2021-06-22",
      "election_year": 2022,
      "election_years": [
        2022
      ],
      "state": "CO",
      "name": "JONES, ALAX",
      "party": "UN",
      "office_full": "House",
      "candidate_status": "N",
      "active_through": 2022,
      "last_file_date": "2021-06-22",
      "address_street_1": "7761 WAGONWOOD PLACE",
      "coverage_start_date": null,
      "two_year_period": 2022,
      "address_street_2": null,
      "candidate_id": "H2CO05174"
    }
  ]
}
